Linked: (/home/nikola/ws_moveit/devel/.private/moveit_ros_visualization/share/moveit_ros_visualization/cmake/moveit_ros_visualizationConfig-version.cmake, /home/nikola/ws_moveit/devel/share/moveit_ros_visualization/cmake/moveit_ros_visualizationConfig-version.cmake)
Linked: (/home/nikola/ws_moveit/devel/.private/moveit_ros_visualization/share/moveit_ros_visualization/cmake/moveit_ros_visualizationConfig.cmake, /home/nikola/ws_moveit/devel/share/moveit_ros_visualization/cmake/moveit_ros_visualizationConfig.cmake)
Linked: (/home/nikola/ws_moveit/devel/.private/moveit_ros_visualization/lib/libmoveit_planning_scene_rviz_plugin.so, /home/nikola/ws_moveit/devel/lib/libmoveit_planning_scene_rviz_plugin.so)
Linked: (/home/nikola/ws_moveit/devel/.private/moveit_ros_visualization/lib/libmoveit_motion_planning_rviz_plugin_core.so.1.1.11, /home/nikola/ws_moveit/devel/lib/libmoveit_motion_planning_rviz_plugin_core.so.1.1.11)
Linked: (/home/nikola/ws_moveit/devel/.private/moveit_ros_visualization/lib/libmoveit_trajectory_rviz_plugin_core.so, /home/nikola/ws_moveit/devel/lib/libmoveit_trajectory_rviz_plugin_core.so)
Linked: (/home/nikola/ws_moveit/devel/.private/moveit_ros_visualization/lib/libmoveit_planning_scene_rviz_plugin_core.so, /home/nikola/ws_moveit/devel/lib/libmoveit_planning_scene_rviz_plugin_core.so)
Linked: (/home/nikola/ws_moveit/devel/.private/moveit_ros_visualization/lib/libmoveit_rviz_plugin_render_tools.so.1.1.11, /home/nikola/ws_moveit/devel/lib/libmoveit_rviz_plugin_render_tools.so.1.1.11)
Linked: (/home/nikola/ws_moveit/devel/.private/moveit_ros_visualization/lib/libmoveit_planning_scene_rviz_plugin_core.so.1.1.11, /home/nikola/ws_moveit/devel/lib/libmoveit_planning_scene_rviz_plugin_core.so.1.1.11)
Linked: (/home/nikola/ws_moveit/devel/.private/moveit_ros_visualization/lib/libmoveit_planning_scene_rviz_plugin.so.1.1.11, /home/nikola/ws_moveit/devel/lib/libmoveit_planning_scene_rviz_plugin.so.1.1.11)
Linked: (/home/nikola/ws_moveit/devel/.private/moveit_ros_visualization/lib/libmoveit_rviz_plugin_render_tools.so, /home/nikola/ws_moveit/devel/lib/libmoveit_rviz_plugin_render_tools.so)
Linked: (/home/nikola/ws_moveit/devel/.private/moveit_ros_visualization/lib/libmoveit_robot_state_rviz_plugin_core.so.1.1.11, /home/nikola/ws_moveit/devel/lib/libmoveit_robot_state_rviz_plugin_core.so.1.1.11)
Linked: (/home/nikola/ws_moveit/devel/.private/moveit_ros_visualization/lib/libmoveit_motion_planning_rviz_plugin.so.1.1.11, /home/nikola/ws_moveit/devel/lib/libmoveit_motion_planning_rviz_plugin.so.1.1.11)
Linked: (/home/nikola/ws_moveit/devel/.private/moveit_ros_visualization/lib/libmoveit_trajectory_rviz_plugin.so, /home/nikola/ws_moveit/devel/lib/libmoveit_trajectory_rviz_plugin.so)
Linked: (/home/nikola/ws_moveit/devel/.private/moveit_ros_visualization/lib/libmoveit_robot_state_rviz_plugin_core.so, /home/nikola/ws_moveit/devel/lib/libmoveit_robot_state_rviz_plugin_core.so)
Linked: (/home/nikola/ws_moveit/devel/.private/moveit_ros_visualization/lib/libmoveit_trajectory_rviz_plugin_core.so.1.1.11, /home/nikola/ws_moveit/devel/lib/libmoveit_trajectory_rviz_plugin_core.so.1.1.11)
Linked: (/home/nikola/ws_moveit/devel/.private/moveit_ros_visualization/lib/libmoveit_motion_planning_rviz_plugin.so, /home/nikola/ws_moveit/devel/lib/libmoveit_motion_planning_rviz_plugin.so)
Linked: (/home/nikola/ws_moveit/devel/.private/moveit_ros_visualization/lib/libmoveit_trajectory_rviz_plugin.so.1.1.11, /home/nikola/ws_moveit/devel/lib/libmoveit_trajectory_rviz_plugin.so.1.1.11)
Linked: (/home/nikola/ws_moveit/devel/.private/moveit_ros_visualization/lib/libmoveit_robot_state_rviz_plugin.so.1.1.11, /home/nikola/ws_moveit/devel/lib/libmoveit_robot_state_rviz_plugin.so.1.1.11)
Linked: (/home/nikola/ws_moveit/devel/.private/moveit_ros_visualization/lib/libmoveit_robot_state_rviz_plugin.so, /home/nikola/ws_moveit/devel/lib/libmoveit_robot_state_rviz_plugin.so)
Linked: (/home/nikola/ws_moveit/devel/.private/moveit_ros_visualization/lib/libmoveit_motion_planning_rviz_plugin_core.so, /home/nikola/ws_moveit/devel/lib/libmoveit_motion_planning_rviz_plugin_core.so)
Linked: (/home/nikola/ws_moveit/devel/.private/moveit_ros_visualization/lib/python3/dist-packages/moveit_ros_visualization/__init__.py, /home/nikola/ws_moveit/devel/lib/python3/dist-packages/moveit_ros_visualization/__init__.py)
Linked: (/home/nikola/ws_moveit/devel/.private/moveit_ros_visualization/lib/pkgconfig/moveit_ros_visualization.pc, /home/nikola/ws_moveit/devel/lib/pkgconfig/moveit_ros_visualization.pc)
Linked: (/home/nikola/ws_moveit/devel/.private/moveit_ros_visualization/lib/moveit_ros_visualization/cmake.lock, /home/nikola/ws_moveit/devel/lib/moveit_ros_visualization/cmake.lock)
Linked: (/home/nikola/ws_moveit/devel/.private/moveit_ros_visualization/lib/moveit_ros_visualization/moveit_joy.py, /home/nikola/ws_moveit/devel/lib/moveit_ros_visualization/moveit_joy.py)
